# Transifex resource live-bootloader 
# generated at Sun, 07 May 2023 20:16:39 +0000
   Nr.		Cnt.	 Compl.		Code		Language
   ---		----	 ------		----		--------
     1		  39	   100%    	ca      	ca	Catalan; Valencian
     2		  39	   100%    	cs      	cs	Czech
     3		  39	   100%    	de      	de	German
     4		  39	   100%    	el      	el	Greek, Modern (1453-)
     5		  39	   100%    	es      	es	Spanish; Castilian
     6		  39	   100%    	fr      	fr	French
     7		  39	   100%    	fr_BE   	fr	French @ Belgium
     8		  39	   100%    	it      	it	Italian
     9		  39	   100%    	ja      	ja	Japanese
    10		  39	   100%    	nl      	nl	Dutch; Flemish
    11		  39	   100%    	pt      	pt	Portuguese
    12		  39	   100%    	pt_BR   	pt	Portuguese @ Brazil
    13		  39	   100%    	ru      	ru	Russian
    14		  39	   100%    	sl      	sl	Slovenian
    15		  39	   100%    	sq      	sq	Albanian
    16		  39	   100%    	sv      	sv	Swedish
    17		  38	    97%    	fi      	fi	Finnish
    18		  38	    97%    	gl_ES   	gl	Galician @ Spain
    19		  38	    97%    	he_IL   	he	Hebrew @ Israel
    20		  38	    97%    	hi      	hi	Hindi
    21		  38	    97%    	hu      	hu	Hungarian
    22		  38	    97%    	nb      	nb	Bokmål, Norwegian; Norwegian Bokmål
    23		  38	    97%    	nl_BE   	nl	Dutch; Flemish @ Belgium
    24		  38	    97%    	pl      	pl	Polish
    25		  38	    97%    	tr      	tr	Turkish
    26		  33	    84%    	da      	da	Danish
    27		  32	    82%    	am      	am	Amharic
    28		  32	    82%    	sk      	sk	Slovak
    29		  31	    79%    	kk      	kk	Kazakh
    30		  27	    69%    	bg      	bg	Bulgarian
    31		  27	    69%    	zh_CN   	zh	Chinese @ China
    32		  22	    56%    	lt      	lt	Lithuanian
    33		  21	    53%    	ro      	ro	Romanian; Moldavian; Moldovan
    34		  17	    43%    	zh_TW   	zh	Chinese @ Taiwan, Province of China
    35		  16	    41%    	hr      	hr	Croatian
    36		  16	    41%    	uk      	uk	Ukrainian
    37		  13	    33%    	ar      	ar	Arabic
    38		  13	    33%    	et      	et	Estonian
    39		  13	    33%    	sr      	sr	Serbian
    40		  12	    30%    	ko      	ko	Korean
    41		   9	    23%    	fil     		Filipino
    42		   8	    20%    	zh_HK   	zh	Chinese @ Hong Kong
    43		   7	    17%    	th      	th	Thai
    44		   6	    15%    	fa      	fa	Persian
    45		   6	    15%    	is      	is	Icelandic
    46		   5	    12%    	nb_NO   	nb	Bokmål, Norwegian; Norwegian Bokmål @ Norway
    47		   4	    10%    	id      	id	Indonesian
    48		   4	    10%    	mr      	mr	Marathi
    49		   4	    10%    	vi      	vi	Vietnamese
    50		   3	     7%    	eu      	eu	Basque
    51		   3	     7%    	gu      	gu	Gujarati
    52		   3	     7%    	mk      	mk	Macedonian
    53		   0	     0%    	be      	be	Belarusian
    54		   0	     0%    	bn      	bn	Bengali
